<svg width="1376" height="765" viewBox="0 0 1376 765" fill="none" xmlns="http://www.w3.org/2000/svg">
<g opacity="0.7">
<ellipse cx="133" cy="507.5" rx="5" ry="4.5" fill="#F4C343"/>
<circle cx="146.5" cy="544.5" r="4.5" fill="#03033C"/>
<circle opacity="0.72" cx="5.25832" cy="60.2707" r="4.5" transform="rotate(-93 5.25832 60.2707)" fill="#EA6B80"/>
<ellipse opacity="0.87" cx="279.667" cy="50.1346" rx="4.55" ry="4.095" transform="rotate(81 279.667 50.1346)" fill="#F4C343"/>
<ellipse opacity="0.87" cx="484.346" cy="35.6631" rx="3.5" ry="3.15" transform="rotate(56 484.346 35.6631)" fill="#F4C343"/>
<ellipse opacity="0.97" cx="584.259" cy="47.9904" rx="3.15" ry="2.835" transform="rotate(110 584.259 47.9904)" fill="#F4C343"/>
<ellipse opacity="0.74" cx="799.514" cy="7.17373" rx="5.4" ry="4.86" transform="rotate(-152 799.514 7.17373)" fill="#F4C343"/>
<circle opacity="0.76" cx="1041.2" cy="77.3158" r="4.95" transform="rotate(-87 1041.2 77.3158)" fill="#03033C"/>
<ellipse opacity="0.93" cx="1194.8" cy="48.0867" rx="5.2" ry="4.68" transform="rotate(-76 1194.8 48.0867)" fill="#F4C343"/>
<ellipse opacity="0.78" cx="1309.82" cy="40.8266" rx="5.25" ry="4.725" transform="rotate(-27 1309.82 40.8266)" fill="#F4C343"/>
<circle opacity="0.96" cx="5.6" cy="155.1" r="3.6" fill="#EA6B80"/>
<ellipse opacity="0.88" cx="213.811" cy="133.872" rx="4.6" ry="4.14" transform="rotate(105 213.811 133.872)" fill="#F4C343"/>
<circle opacity="0.73" cx="383.753" cy="114.091" r="5.22" transform="rotate(146 383.753 114.091)" fill="#03033C"/>
<ellipse opacity="0.88" cx="520.505" cy="129.349" rx="3.6" ry="3.24" transform="rotate(-163 520.505 129.349)" fill="#F4C343"/>
<ellipse opacity="0.82" cx="712.011" cy="111.517" rx="4" ry="3.6" transform="rotate(116 712.011 111.517)" fill="#F4C343"/>
<circle opacity="0.74" cx="954.299" cy="100.884" r="4.545" transform="rotate(92 954.299 100.884)" fill="#EA6B80"/>
<ellipse opacity="0.74" cx="1089.76" cy="170.357" rx="4.75" ry="4.275" transform="rotate(-116 1089.76 170.357)" fill="#F4C343"/>
<ellipse opacity="0.95" cx="1323.53" cy="162.022" rx="3.8" ry="3.42" transform="rotate(167 1323.53 162.022)" fill="#F4C343"/>
<ellipse opacity="0.87" cx="79.5393" cy="226.863" rx="3" ry="2.7" transform="rotate(-93 79.5393 226.863)" fill="#F4C343"/>
<circle opacity="0.99" cx="265.074" cy="204.643" r="3.15" transform="rotate(-147 265.074 204.643)" fill="#03033C"/>
<ellipse opacity="0.94" cx="418.337" cy="253.816" rx="4.9" ry="4.41" transform="rotate(-26 418.337 253.816)" fill="#F4C343"/>
<circle opacity="0.81" cx="552.805" cy="194.543" r="5.4" transform="rotate(54 552.805 194.543)" fill="#EA6B80"/>
<circle opacity="0.8" cx="798.321" cy="259.261" r="5.04" transform="rotate(-116 798.321 259.261)" fill="#03033C"/>
<ellipse opacity="0.78" cx="1035.13" cy="270.293" rx="5.5" ry="4.95" transform="rotate(-107 1035.13 270.293)" fill="#F4C343"/>
<ellipse opacity="0.9" cx="1212.21" cy="267.423" rx="5.05" ry="4.545" transform="rotate(29 1212.21 267.423)" fill="#F4C343"/>
<circle opacity="0.88" cx="1372.23" cy="211.074" r="2.925" transform="rotate(87 1372.23 211.074)" fill="#EA6B80"/>
<circle opacity="0.95" cx="106.467" cy="359.518" r="5.265" transform="rotate(177 106.467 359.518)" fill="#EA6B80"/>
<circle opacity="0.79" cx="320.218" cy="339.026" r="4.77" transform="rotate(166 320.218 339.026)" fill="#03033C"/>
<circle opacity="0.92" cx="340.291" cy="332.646" r="4.995" transform="rotate(-149 340.291 332.646)" fill="#03033C"/>
<ellipse opacity="0.73" cx="579.764" cy="340.777" rx="5" ry="4.5" transform="rotate(-134 579.764 340.777)" fill="#F4C343"/>
<ellipse opacity="0.92" cx="727.644" cy="359.295" rx="4.5" ry="4.05" transform="rotate(-178 727.644 359.295)" fill="#F4C343"/>
<circle opacity="0.84" cx="944.722" cy="316.736" r="4.275" transform="rotate(-97 944.722 316.736)" fill="#EA6B80"/>
<circle opacity="0.87" cx="1178.45" cy="297.985" r="3.195" transform="rotate(52 1178.45 297.985)" fill="#03033C"/>
<circle opacity="0.86" cx="1353.3" cy="304.434" r="3.69" transform="rotate(64 1353.3 304.434)" fill="#EA6B80"/>
<ellipse cx="67.614" cy="447.498" rx="4.1" ry="3.69" transform="rotate(-136 67.614 447.498)" fill="#F4C343"/>
<circle opacity="0.91" cx="258.231" cy="462.584" r="4.86" transform="rotate(-97 258.231 462.584)" fill="#EA6B80"/>
<ellipse opacity="0.99" cx="481.384" cy="416.877" rx="5.7" ry="5.13" transform="rotate(-169 481.384 416.877)" fill="#F4C343"/>
<ellipse opacity="0.75" cx="561.867" cy="398.526" rx="5.95" ry="5.355" transform="rotate(-111 561.867 398.526)" fill="#F4C343"/>
<circle opacity="0.79" cx="708.705" cy="449.685" r="3.825" transform="rotate(15 708.705 449.685)" fill="#EA6B80"/>
<circle opacity="0.76" cx="1044.1" cy="430.035" r="4.14" transform="rotate(-103 1044.1 430.035)" fill="#03033C"/>
<ellipse opacity="0.85" cx="1049.55" cy="439.663" rx="4.8" ry="4.32" transform="rotate(141 1049.55 439.663)" fill="#F4C343"/>
<ellipse opacity="0.76" cx="1288.45" cy="469.637" rx="3.3" ry="2.97" transform="rotate(83 1288.45 469.637)" fill="#F4C343"/>
<ellipse opacity="0.97" cx="110.91" cy="490.511" rx="5.3" ry="4.77" transform="rotate(-76 110.91 490.511)" fill="#F4C343"/>
<circle opacity="0.81" cx="169.075" cy="515.914" r="5.31" transform="rotate(-9 169.075 515.914)" fill="#EA6B80"/>
<circle opacity="0.91" cx="374.981" cy="570.09" r="3.87" transform="rotate(12 374.981 570.09)" fill="#EA6B80"/>
<circle opacity="0.81" cx="653.11" cy="548.169" r="3.465" transform="rotate(-12 653.11 548.169)" fill="#EA6B80"/>
<circle opacity="0.72" cx="760.277" cy="560.972" r="3.6" transform="rotate(92 760.277 560.972)" fill="#EA6B80"/>
<circle opacity="0.99" cx="960.537" cy="546.207" r="3.195" transform="rotate(126 960.537 546.207)" fill="#03033C"/>
<ellipse opacity="0.76" cx="1054.28" cy="504.097" rx="4.8" ry="4.32" transform="rotate(-179 1054.28 504.097)" fill="#F4C343"/>
<ellipse opacity="0.76" cx="1305.59" cy="533.268" rx="4.9" ry="4.41" transform="rotate(-44 1305.59 533.268)" fill="#F4C343"/>
<circle opacity="0.78" cx="131.873" cy="651.254" r="5.13" transform="rotate(46 131.873 651.254)" fill="#03033C"/>
<ellipse opacity="0.86" cx="265.893" cy="590.574" rx="4.55" ry="4.095" transform="rotate(142 265.893 590.574)" fill="#F4C343"/>
<circle opacity="0.71" cx="501.452" cy="609.891" r="3.285" transform="rotate(-87 501.452 609.891)" fill="#03033C"/>
<circle opacity="0.85" cx="572.736" cy="616" r="3.015" transform="rotate(135 572.736 616)" fill="#EA6B80"/>
<circle opacity="0.98" cx="841.043" cy="620.204" r="3.6" transform="rotate(96 841.043 620.204)" fill="#03033C"/>
<circle opacity="0.74" cx="932.909" cy="603.125" r="4.5" transform="rotate(-175 932.909 603.125)" fill="#EA6B80"/>
<ellipse opacity="0.94" cx="1092" cy="598.672" rx="5.1" ry="4.59" transform="rotate(-71 1092 598.672)" fill="#F4C343"/>
<circle opacity="0.9" cx="1302.31" cy="658.162" r="3.105" transform="rotate(-56 1302.31 658.162)" fill="#EA6B80"/>
<ellipse opacity="0.96" cx="33.7595" cy="732.896" rx="4.05" ry="3.645" transform="rotate(40 33.7595 732.896)" fill="#F4C343"/>
<circle opacity="0.71" cx="274.12" cy="756.372" r="4.86" transform="rotate(44 274.12 756.372)" fill="#03033C"/>
<ellipse opacity="0.85" cx="415.703" cy="713.333" rx="4.95" ry="4.455" transform="rotate(157 415.703 713.333)" fill="#F4C343"/>
<ellipse opacity="0.89" cx="686.796" cy="759.825" rx="3.6" ry="3.24" transform="rotate(-50 686.796 759.825)" fill="#F4C343"/>
<ellipse opacity="0.87" cx="840.391" cy="708.485" rx="3.35" ry="3.015" transform="rotate(-55 840.391 708.485)" fill="#F4C343"/>
<ellipse opacity="0.86" cx="937.244" cy="689.135" rx="3.45" ry="3.105" transform="rotate(45 937.244 689.135)" fill="#F4C343"/>
<ellipse opacity="0.96" cx="1067.79" cy="711.574" rx="4.85" ry="4.365" transform="rotate(175 1067.79 711.574)" fill="#F4C343"/>
<ellipse opacity="0.83" cx="1339.84" cy="716.254" rx="5.35" ry="4.815" transform="rotate(132 1339.84 716.254)" fill="#F4C343"/>
</g>
</svg>
