<svg width="259" height="157" viewBox="0 0 259 157" fill="none" xmlns="http://www.w3.org/2000/svg">
<path d="M9.25 20C9.25 15.5817 12.8317 12 17.25 12H241.25C245.668 12 249.25 15.5817 249.25 20V30H9.25V20Z" fill="#B9B9CB"/>
<circle cx="20.25" cy="22" r="2" fill="#F7F7F9"/>
<circle cx="26.25" cy="22" r="2" fill="#F7F7F9"/>
<circle cx="32.25" cy="22" r="2" fill="#F7F7F9"/>
<path d="M41.25 23C41.25 20.7909 43.0409 19 45.25 19H103.25C105.459 19 107.25 20.7909 107.25 23V30H41.25V23Z" fill="#E8E8ED"/>
<rect x="9.25" y="30" width="240" height="22" fill="#E8E8ED"/>
<rect x="41.25" y="36" width="202" height="10" rx="5" fill="white"/>
<rect x="9.125" y="52" width="240" height="43" fill="#F7F7F9"/>
<circle cx="100.25" cy="25" r="2" fill="#B9B9CB"/>
<rect x="47.25" y="24" width="11" height="3" rx="1.5" fill="#D0D0DC"/>
<rect x="47.25" y="40" width="29" height="3" rx="1.5" fill="#D0D0DC"/>
<circle cx="18.25" cy="41" r="5" fill="white"/>
<circle cx="30.25" cy="41" r="5" fill="white"/>
<line y1="94.5" x2="259" y2="94.5" stroke="#D0D0DC"/>
<g filter="url(#filter0_ddddd_2681_80592)">
<rect x="164" y="26" width="79" height="107" rx="4" fill="white"/>
<rect x="164.5" y="26.5" width="78" height="106" rx="3.5" stroke="#E8E8ED"/>
</g>
<path d="M18.75 42L17.75 41L18.75 40" stroke="#B9B9CB" stroke-linecap="round"/>
<path d="M29.75 40L30.75 41L29.75 42" stroke="#B9B9CB" stroke-linecap="round"/>
<rect x="169" y="52" width="8" height="8" rx="1" fill="#E8E8ED"/>
<rect x="181" y="52" width="44" height="3" rx="1.5" fill="#F7F7F9"/>
<rect x="181" y="57" width="23" height="3" rx="1.5" fill="#F7F7F9"/>
<path d="M234.163 57.5023C234.245 57.584 234.376 57.584 234.458 57.5023L235.843 56.1173C235.908 56.0523 235.908 55.9473 235.843 55.8823L234.458 54.4973C234.376 54.4156 234.245 54.4156 234.163 54.4973C234.081 54.579 234.081 54.7106 234.163 54.7923L235.37 56.0006L234.161 57.209C234.081 57.289 234.081 57.4223 234.163 57.5023Z" fill="#D0D0DC"/>
<rect x="169" y="36" width="8" height="8" rx="1" fill="#E8E8ED"/>
<rect x="181" y="36" width="44" height="3" rx="1.5" fill="#F7F7F9"/>
<rect x="181" y="41" width="23" height="3" rx="1.5" fill="#F7F7F9"/>
<path d="M234.163 41.5023C234.245 41.584 234.376 41.584 234.458 41.5023L235.843 40.1173C235.908 40.0523 235.908 39.9473 235.843 39.8823L234.458 38.4973C234.376 38.4156 234.245 38.4156 234.163 38.4973C234.081 38.579 234.081 38.7106 234.163 38.7923L235.37 40.0006L234.161 41.209C234.081 41.289 234.081 41.4223 234.163 41.5023Z" fill="#D0D0DC"/>
<rect x="169" y="68" width="8" height="8" rx="1" fill="#E8E8ED"/>
<rect x="181" y="68" width="44" height="3" rx="1.5" fill="#F7F7F9"/>
<rect x="181" y="73" width="23" height="3" rx="1.5" fill="#F7F7F9"/>
<path d="M234.163 73.5023C234.245 73.584 234.376 73.584 234.458 73.5023L235.843 72.1173C235.908 72.0523 235.908 71.9473 235.843 71.8823L234.458 70.4973C234.376 70.4156 234.245 70.4156 234.163 70.4973C234.081 70.579 234.081 70.7106 234.163 70.7923L235.37 72.0006L234.161 73.209C234.081 73.289 234.081 73.4223 234.163 73.5023Z" fill="#D0D0DC"/>
<rect x="169" y="84" width="8" height="8" rx="1" fill="#E8E8ED"/>
<rect x="181" y="84" width="44" height="3" rx="1.5" fill="#F7F7F9"/>
<rect x="181" y="89" width="23" height="3" rx="1.5" fill="#F7F7F9"/>
<path d="M234.163 89.5023C234.245 89.584 234.376 89.584 234.458 89.5023L235.843 88.1173C235.908 88.0523 235.908 87.9473 235.843 87.8823L234.458 86.4973C234.376 86.4156 234.245 86.4156 234.163 86.4973C234.081 86.579 234.081 86.7106 234.163 86.7923L235.37 88.0006L234.161 89.209C234.081 89.289 234.081 89.4223 234.163 89.5023Z" fill="#D0D0DC"/>
<rect x="169" y="100" width="8" height="8" rx="1" fill="#E8E8ED"/>
<rect x="181" y="100" width="44" height="3" rx="1.5" fill="#F7F7F9"/>
<rect x="181" y="105" width="23" height="3" rx="1.5" fill="#F7F7F9"/>
<path d="M234.163 105.502C234.245 105.584 234.376 105.584 234.458 105.502L235.843 104.117C235.908 104.052 235.908 103.947 235.843 103.882L234.458 102.497C234.376 102.416 234.245 102.416 234.163 102.497C234.081 102.579 234.081 102.711 234.163 102.792L235.37 104.001L234.161 105.209C234.081 105.289 234.081 105.422 234.163 105.502Z" fill="#D0D0DC"/>
<rect x="169" y="116" width="8" height="8" rx="1" fill="#E8E8ED"/>
<rect x="181" y="116" width="44" height="3" rx="1.5" fill="#F7F7F9"/>
<rect x="181" y="121" width="23" height="3" rx="1.5" fill="#F7F7F9"/>
<path d="M234.163 121.502C234.245 121.584 234.376 121.584 234.458 121.502L235.843 120.117C235.908 120.052 235.908 119.947 235.843 119.882L234.458 118.497C234.376 118.416 234.245 118.416 234.163 118.497C234.081 118.579 234.081 118.711 234.163 118.792L235.37 120.001L234.161 121.209C234.081 121.289 234.081 121.422 234.163 121.502Z" fill="#D0D0DC"/>
<g filter="url(#filter1_ddddd_2681_80592)">
<rect x="199" y="1" width="36.5263" height="36.5263" rx="18.2631" fill="white"/>
<path fill-rule="evenodd" clip-rule="evenodd" d="M221.47 26.3748C222.33 25.9229 225.526 23.6397 225.526 19.2613C225.526 14.2616 221.47 11 217.08 11C217.617 13.6967 215.706 14.2037 213.608 14.7602C211.407 15.3441 209 15.9827 209 19.2631C209 23.5672 212.036 25.6845 212.645 26.109C212.693 26.1428 212.726 26.1659 212.741 26.1785L213.976 21.5677C214.319 20.4503 214.531 19.3207 214.417 18.1595L214.325 17.3332C214.325 17.3332 214.289 17.12 214.49 17.0657C214.625 17.0296 214.723 17.058 214.784 17.1509L215.243 17.9744C215.826 17.6491 216.497 17.4721 217.08 17.4721C217.662 17.4721 218.333 17.6491 218.916 17.9744L219.467 17.1496C219.466 17.1503 219.543 17.0249 219.742 17.078C219.941 17.1311 219.926 17.3332 219.926 17.3332L219.834 18.1595C219.72 19.3201 219.829 20.47 220.185 21.583L221.47 26.3748ZM216.345 19.7203C216.345 19.9739 216.181 20.1794 215.978 20.1794C215.775 20.1794 215.611 19.9739 215.611 19.7203C215.611 19.4668 215.775 19.2613 215.978 19.2613C216.181 19.2613 216.345 19.4668 216.345 19.7203ZM218.549 19.7203C218.549 19.9739 218.384 20.1794 218.181 20.1794C217.978 20.1794 217.814 19.9739 217.814 19.7203C217.814 19.4668 217.978 19.2613 218.181 19.2613C218.384 19.2613 218.549 19.4668 218.549 19.7203ZM217.722 21.0066V20.9158C217.722 20.8651 217.681 20.8239 217.63 20.8239H216.529C216.478 20.8239 216.437 20.8651 216.437 20.9158V21.0066C216.437 21.1076 216.519 21.1894 216.62 21.1894H216.896V21.4648C216.896 21.5155 216.937 21.5566 216.988 21.5566H217.171C217.222 21.5566 217.263 21.5155 217.263 21.4648V21.1894H217.539C217.64 21.1894 217.722 21.1076 217.722 21.0066ZM217.447 23.8538V23.3947H216.712V23.8538H215.794C215.505 23.8538 215.243 24.1026 215.243 24.3746V25.5638C215.243 26.2179 215.63 26.8176 216.247 27.1193L217.079 27.5263L217.911 27.1193C218.517 26.8232 218.901 26.24 218.915 25.6001L218.414 25.5982C218.165 25.5982 217.963 25.374 217.963 25.1399C217.963 24.9058 218.165 24.6801 218.414 24.6801H218.916V24.3746C218.916 24.1026 218.654 23.8538 218.365 23.8538H217.447ZM215.669 25.8348C215.659 25.7264 215.745 25.6304 215.86 25.6203C215.97 25.6107 216.067 25.6829 216.084 25.7837L216.086 25.7983L216.088 25.8239C216.109 26.0658 216.245 26.2482 216.459 26.3789L216.485 26.3936L216.506 26.4057C216.605 26.4612 216.636 26.5821 216.576 26.6757C216.519 26.7646 216.4 26.7969 216.304 26.7522L216.289 26.7445L216.267 26.7325C215.934 26.5452 215.718 26.2574 215.675 25.8945L215.671 25.8604L215.669 25.8348Z" fill="#474775"/>
<rect x="199.5" y="1.5" width="35.5263" height="35.5263" rx="17.7631" stroke="#E8E8ED"/>
</g>
<g filter="url(#filter2_ddddd_2681_80592)">
<rect x="199" y="1" width="36.5263" height="36.5263" rx="18.2631" fill="white"/>
<path fill-rule="evenodd" clip-rule="evenodd" d="M221.47 26.3748C222.33 25.9229 225.526 23.6397 225.526 19.2613C225.526 14.2616 221.47 11 217.08 11C217.617 13.6967 215.706 14.2037 213.608 14.7602C211.407 15.3441 209 15.9827 209 19.2631C209 23.5672 212.036 25.6845 212.645 26.109C212.693 26.1428 212.726 26.1659 212.741 26.1785L213.976 21.5677C214.319 20.4503 214.531 19.3207 214.417 18.1595L214.325 17.3332C214.325 17.3332 214.289 17.12 214.49 17.0657C214.625 17.0296 214.723 17.058 214.784 17.1509L215.243 17.9744C215.826 17.6491 216.497 17.4721 217.08 17.4721C217.662 17.4721 218.333 17.6491 218.916 17.9744L219.467 17.1496C219.466 17.1503 219.543 17.0249 219.742 17.078C219.941 17.1311 219.926 17.3332 219.926 17.3332L219.834 18.1595C219.72 19.3201 219.829 20.47 220.185 21.583L221.47 26.3748ZM216.345 19.7203C216.345 19.9739 216.181 20.1794 215.978 20.1794C215.775 20.1794 215.611 19.9739 215.611 19.7203C215.611 19.4668 215.775 19.2613 215.978 19.2613C216.181 19.2613 216.345 19.4668 216.345 19.7203ZM218.549 19.7203C218.549 19.9739 218.384 20.1794 218.181 20.1794C217.978 20.1794 217.814 19.9739 217.814 19.7203C217.814 19.4668 217.978 19.2613 218.181 19.2613C218.384 19.2613 218.549 19.4668 218.549 19.7203ZM217.722 21.0066V20.9158C217.722 20.8651 217.681 20.8239 217.63 20.8239H216.529C216.478 20.8239 216.437 20.8651 216.437 20.9158V21.0066C216.437 21.1076 216.519 21.1894 216.62 21.1894H216.896V21.4648C216.896 21.5155 216.937 21.5566 216.988 21.5566H217.171C217.222 21.5566 217.263 21.5155 217.263 21.4648V21.1894H217.539C217.64 21.1894 217.722 21.1076 217.722 21.0066ZM217.447 23.8538V23.3947H216.712V23.8538H215.794C215.505 23.8538 215.243 24.1026 215.243 24.3746V25.5638C215.243 26.2179 215.63 26.8176 216.247 27.1193L217.079 27.5263L217.911 27.1193C218.517 26.8232 218.901 26.24 218.915 25.6001L218.414 25.5982C218.165 25.5982 217.963 25.374 217.963 25.1399C217.963 24.9058 218.165 24.6801 218.414 24.6801H218.916V24.3746C218.916 24.1026 218.654 23.8538 218.365 23.8538H217.447ZM215.669 25.8348C215.659 25.7264 215.745 25.6304 215.86 25.6203C215.97 25.6107 216.067 25.6829 216.084 25.7837L216.086 25.7983L216.088 25.8239C216.109 26.0658 216.245 26.2482 216.459 26.3789L216.485 26.3936L216.506 26.4057C216.605 26.4612 216.636 26.5821 216.576 26.6757C216.519 26.7646 216.4 26.7969 216.304 26.7522L216.289 26.7445L216.267 26.7325C215.934 26.5452 215.718 26.2574 215.675 25.8945L215.671 25.8604L215.669 25.8348Z" fill="#05003F"/>
<rect x="199.5" y="1.5" width="35.5263" height="35.5263" rx="17.7631" stroke="#E8E8ED"/>
</g>
<defs>
<filter id="filter0_ddddd_2681_80592" x="157" y="25" width="93" height="132" filterUnits="userSpaceOnUse" color-interpolation-filters="sRGB">
<feFlood flood-opacity="0" result="BackgroundImageFix"/>
<feColorMatrix in="SourceAlpha" type="matrix" values="0 0 0 0 0 0 0 0 0 0 0 0 0 0 0 0 0 0 127 0" result="hardAlpha"/>
<feOffset/>
<feColorMatrix type="matrix" values="0 0 0 0 0 0 0 0 0 0 0 0 0 0 0 0 0 0 0.1 0"/>
<feBlend mode="normal" in2="BackgroundImageFix" result="effect1_dropShadow_2681_80592"/>
<feColorMatrix in="SourceAlpha" type="matrix" values="0 0 0 0 0 0 0 0 0 0 0 0 0 0 0 0 0 0 127 0" result="hardAlpha"/>
<feOffset dy="1"/>
<feGaussianBlur stdDeviation="1"/>
<feColorMatrix type="matrix" values="0 0 0 0 0 0 0 0 0 0 0 0 0 0 0 0 0 0 0.1 0"/>
<feBlend mode="normal" in2="effect1_dropShadow_2681_80592" result="effect2_dropShadow_2681_80592"/>
<feColorMatrix in="SourceAlpha" type="matrix" values="0 0 0 0 0 0 0 0 0 0 0 0 0 0 0 0 0 0 127 0" result="hardAlpha"/>
<feOffset dy="4"/>
<feGaussianBlur stdDeviation="2"/>
<feColorMatrix type="matrix" values="0 0 0 0 0 0 0 0 0 0 0 0 0 0 0 0 0 0 0.09 0"/>
<feBlend mode="normal" in2="effect2_dropShadow_2681_80592" result="effect3_dropShadow_2681_80592"/>
<feColorMatrix in="SourceAlpha" type="matrix" values="0 0 0 0 0 0 0 0 0 0 0 0 0 0 0 0 0 0 127 0" result="hardAlpha"/>
<feOffset dy="9"/>
<feGaussianBlur stdDeviation="3"/>
<feColorMatrix type="matrix" values="0 0 0 0 0 0 0 0 0 0 0 0 0 0 0 0 0 0 0.05 0"/>
<feBlend mode="normal" in2="effect3_dropShadow_2681_80592" result="effect4_dropShadow_2681_80592"/>
<feColorMatrix in="SourceAlpha" type="matrix" values="0 0 0 0 0 0 0 0 0 0 0 0 0 0 0 0 0 0 127 0" result="hardAlpha"/>
<feOffset dy="17"/>
<feGaussianBlur stdDeviation="3.5"/>
<feColorMatrix type="matrix" values="0 0 0 0 0 0 0 0 0 0 0 0 0 0 0 0 0 0 0.01 0"/>
<feBlend mode="normal" in2="effect4_dropShadow_2681_80592" result="effect5_dropShadow_2681_80592"/>
<feBlend mode="normal" in="SourceGraphic" in2="effect5_dropShadow_2681_80592" result="shape"/>
</filter>
<filter id="filter1_ddddd_2681_80592" x="192" y="0" width="50.5234" height="61.5264" filterUnits="userSpaceOnUse" color-interpolation-filters="sRGB">
<feFlood flood-opacity="0" result="BackgroundImageFix"/>
<feColorMatrix in="SourceAlpha" type="matrix" values="0 0 0 0 0 0 0 0 0 0 0 0 0 0 0 0 0 0 127 0" result="hardAlpha"/>
<feOffset/>
<feColorMatrix type="matrix" values="0 0 0 0 0 0 0 0 0 0 0 0 0 0 0 0 0 0 0.1 0"/>
<feBlend mode="normal" in2="BackgroundImageFix" result="effect1_dropShadow_2681_80592"/>
<feColorMatrix in="SourceAlpha" type="matrix" values="0 0 0 0 0 0 0 0 0 0 0 0 0 0 0 0 0 0 127 0" result="hardAlpha"/>
<feOffset dy="1"/>
<feGaussianBlur stdDeviation="1"/>
<feColorMatrix type="matrix" values="0 0 0 0 0 0 0 0 0 0 0 0 0 0 0 0 0 0 0.1 0"/>
<feBlend mode="normal" in2="effect1_dropShadow_2681_80592" result="effect2_dropShadow_2681_80592"/>
<feColorMatrix in="SourceAlpha" type="matrix" values="0 0 0 0 0 0 0 0 0 0 0 0 0 0 0 0 0 0 127 0" result="hardAlpha"/>
<feOffset dy="4"/>
<feGaussianBlur stdDeviation="2"/>
<feColorMatrix type="matrix" values="0 0 0 0 0 0 0 0 0 0 0 0 0 0 0 0 0 0 0.09 0"/>
<feBlend mode="normal" in2="effect2_dropShadow_2681_80592" result="effect3_dropShadow_2681_80592"/>
<feColorMatrix in="SourceAlpha" type="matrix" values="0 0 0 0 0 0 0 0 0 0 0 0 0 0 0 0 0 0 127 0" result="hardAlpha"/>
<feOffset dy="9"/>
<feGaussianBlur stdDeviation="3"/>
<feColorMatrix type="matrix" values="0 0 0 0 0 0 0 0 0 0 0 0 0 0 0 0 0 0 0.05 0"/>
<feBlend mode="normal" in2="effect3_dropShadow_2681_80592" result="effect4_dropShadow_2681_80592"/>
<feColorMatrix in="SourceAlpha" type="matrix" values="0 0 0 0 0 0 0 0 0 0 0 0 0 0 0 0 0 0 127 0" result="hardAlpha"/>
<feOffset dy="17"/>
<feGaussianBlur stdDeviation="3.5"/>
<feColorMatrix type="matrix" values="0 0 0 0 0 0 0 0 0 0 0 0 0 0 0 0 0 0 0.01 0"/>
<feBlend mode="normal" in2="effect4_dropShadow_2681_80592" result="effect5_dropShadow_2681_80592"/>
<feBlend mode="normal" in="SourceGraphic" in2="effect5_dropShadow_2681_80592" result="shape"/>
</filter>
<filter id="filter2_ddddd_2681_80592" x="192" y="0" width="50.5234" height="61.5264" filterUnits="userSpaceOnUse" color-interpolation-filters="sRGB">
<feFlood flood-opacity="0" result="BackgroundImageFix"/>
<feColorMatrix in="SourceAlpha" type="matrix" values="0 0 0 0 0 0 0 0 0 0 0 0 0 0 0 0 0 0 127 0" result="hardAlpha"/>
<feOffset/>
<feColorMatrix type="matrix" values="0 0 0 0 0 0 0 0 0 0 0 0 0 0 0 0 0 0 0.1 0"/>
<feBlend mode="normal" in2="BackgroundImageFix" result="effect1_dropShadow_2681_80592"/>
<feColorMatrix in="SourceAlpha" type="matrix" values="0 0 0 0 0 0 0 0 0 0 0 0 0 0 0 0 0 0 127 0" result="hardAlpha"/>
<feOffset dy="1"/>
<feGaussianBlur stdDeviation="1"/>
<feColorMatrix type="matrix" values="0 0 0 0 0 0 0 0 0 0 0 0 0 0 0 0 0 0 0.1 0"/>
<feBlend mode="normal" in2="effect1_dropShadow_2681_80592" result="effect2_dropShadow_2681_80592"/>
<feColorMatrix in="SourceAlpha" type="matrix" values="0 0 0 0 0 0 0 0 0 0 0 0 0 0 0 0 0 0 127 0" result="hardAlpha"/>
<feOffset dy="4"/>
<feGaussianBlur stdDeviation="2"/>
<feColorMatrix type="matrix" values="0 0 0 0 0 0 0 0 0 0 0 0 0 0 0 0 0 0 0.09 0"/>
<feBlend mode="normal" in2="effect2_dropShadow_2681_80592" result="effect3_dropShadow_2681_80592"/>
<feColorMatrix in="SourceAlpha" type="matrix" values="0 0 0 0 0 0 0 0 0 0 0 0 0 0 0 0 0 0 127 0" result="hardAlpha"/>
<feOffset dy="9"/>
<feGaussianBlur stdDeviation="3"/>
<feColorMatrix type="matrix" values="0 0 0 0 0 0 0 0 0 0 0 0 0 0 0 0 0 0 0.05 0"/>
<feBlend mode="normal" in2="effect3_dropShadow_2681_80592" result="effect4_dropShadow_2681_80592"/>
<feColorMatrix in="SourceAlpha" type="matrix" values="0 0 0 0 0 0 0 0 0 0 0 0 0 0 0 0 0 0 127 0" result="hardAlpha"/>
<feOffset dy="17"/>
<feGaussianBlur stdDeviation="3.5"/>
<feColorMatrix type="matrix" values="0 0 0 0 0 0 0 0 0 0 0 0 0 0 0 0 0 0 0.01 0"/>
<feBlend mode="normal" in2="effect4_dropShadow_2681_80592" result="effect5_dropShadow_2681_80592"/>
<feBlend mode="normal" in="SourceGraphic" in2="effect5_dropShadow_2681_80592" result="shape"/>
</filter>
</defs>
</svg>
