<svg viewBox="0 0 16 16" fill="none" xmlns="http://www.w3.org/2000/svg">
<g clip-path="url(#clip0_250_250)">
<path d="M8.315 8.08C8.33242 8.06553 8.34606 8.04706 8.35477 8.02616C8.36348 8.00526 8.36699 7.98255 8.365 7.96C8.36065 7.93875 8.35105 7.91892 8.33708 7.90233C8.32311 7.88574 8.3052 7.8729 8.285 7.865L7.75 7.665L7.435 7.55C7.39811 7.50559 7.37392 7.45203 7.365 7.395C7.31929 7.17933 7.32962 6.95554 7.395 6.745C7.66175 6.45638 7.86499 6.11502 7.9916 5.74296C8.1182 5.3709 8.16535 4.97642 8.13 4.585C8.15192 4.32283 8.11987 4.05895 8.03582 3.80965C7.95177 3.56035 7.81752 3.33092 7.64134 3.13554C7.46516 2.94015 7.25081 2.78295 7.0115 2.67364C6.7722 2.56433 6.51303 2.50524 6.25 2.5C5.98697 2.50524 5.7278 2.56433 5.4885 2.67364C5.24919 2.78295 5.03484 2.94015 4.85866 3.13554C4.68248 3.33092 4.54823 3.56035 4.46418 3.80965C4.38013 4.05895 4.34808 4.32283 4.37 4.585C4.33385 4.97454 4.38017 5.36733 4.50595 5.73777C4.63173 6.10822 4.83414 6.448 5.1 6.735C5.16971 6.94806 5.18179 7.17577 5.135 7.395C5.12608 7.45203 5.10189 7.50559 5.065 7.55L4.75 7.665C3.525 8.115 2.645 8.44 2.375 9C2.13663 9.55316 2.00922 10.1477 2 10.75C2 10.8163 2.02634 10.8799 2.07322 10.9268C2.12011 10.9737 2.1837 11 2.25 11H6.645C6.67649 11.0001 6.70686 10.9883 6.73003 10.967C6.75321 10.9457 6.76748 10.9164 6.77 10.885C6.82042 10.3362 6.98368 9.80383 7.24955 9.32114C7.51541 8.83845 7.87815 8.4159 8.315 8.08Z" fill="currentColor"/>
<path d="M10.75 8C10.1072 8 9.47886 8.19061 8.9444 8.54772C8.40994 8.90484 7.99338 9.41242 7.74739 10.0063C7.50141 10.6001 7.43705 11.2536 7.56245 11.884C7.68785 12.5145 7.99738 13.0936 8.4519 13.5481C8.90642 14.0026 9.48552 14.3122 10.116 14.4376C10.7464 14.563 11.3999 14.4986 11.9937 14.2526C12.5876 14.0066 13.0952 13.5901 13.4523 13.0556C13.8094 12.5211 14 11.8928 14 11.25C13.9987 10.3885 13.6558 9.56257 13.0466 8.95336C12.4374 8.34416 11.6115 8.00132 10.75 8ZM12.34 12.135C12.4331 12.2287 12.4854 12.3554 12.4854 12.4875C12.4854 12.6196 12.4331 12.7463 12.34 12.84C12.2463 12.9331 12.1196 12.9854 11.9875 12.9854C11.8554 12.9854 11.7287 12.9331 11.635 12.84L10.925 12.135C10.9026 12.1111 10.8754 12.092 10.8453 12.079C10.8153 12.066 10.7828 12.0592 10.75 12.0592C10.7172 12.0592 10.6848 12.066 10.6547 12.079C10.6246 12.092 10.5974 12.1111 10.575 12.135L9.865 12.84C9.77132 12.9331 9.64459 12.9854 9.5125 12.9854C9.38041 12.9854 9.25368 12.9331 9.16 12.84C9.06688 12.7463 9.01461 12.6196 9.01461 12.4875C9.01461 12.3554 9.06688 12.2287 9.16 12.135L9.865 11.425C9.88892 11.4026 9.90798 11.3754 9.92101 11.3453C9.93404 11.3152 9.94076 11.2828 9.94076 11.25C9.94076 11.2172 9.93404 11.1848 9.92101 11.1547C9.90798 11.1246 9.88892 11.0974 9.865 11.075L9.16 10.365C9.07809 10.2693 9.03529 10.1463 9.04015 10.0205C9.04501 9.89464 9.09717 9.77527 9.18622 9.68622C9.27527 9.59717 9.39464 9.54501 9.52047 9.54014C9.64631 9.53528 9.76935 9.57809 9.865 9.66L10.575 10.365C10.5974 10.3889 10.6246 10.408 10.6547 10.421C10.6848 10.434 10.7172 10.4408 10.75 10.4408C10.7828 10.4408 10.8153 10.434 10.8453 10.421C10.8754 10.408 10.9026 10.3889 10.925 10.365L11.635 9.66C11.6798 9.60766 11.735 9.56515 11.797 9.53514C11.859 9.50513 11.9266 9.48826 11.9955 9.4856C12.0643 9.48294 12.133 9.49454 12.1972 9.51968C12.2613 9.54482 12.3196 9.58295 12.3683 9.63168C12.4171 9.6804 12.4552 9.73868 12.4803 9.80284C12.5055 9.867 12.5171 9.93567 12.5144 10.0045C12.5117 10.0734 12.4949 10.141 12.4649 10.203C12.4349 10.265 12.3923 10.3202 12.34 10.365L11.635 11.075C11.6111 11.0974 11.592 11.1246 11.579 11.1547C11.566 11.1848 11.5592 11.2172 11.5592 11.25C11.5592 11.2828 11.566 11.3152 11.579 11.3453C11.592 11.3754 11.6111 11.4026 11.635 11.425L12.34 12.135Z" fill="currentColor"/>
</g>
<defs>
<clipPath id="clip0_250_250">
<rect width="12" height="12" fill="white" transform="translate(2 2.5)"/>
</clipPath>
</defs>
</svg>
