<svg width="93" height="40" viewBox="0 0 93 40" fill="none" xmlns="http://www.w3.org/2000/svg">
<rect width="93" height="40" fill="url(#paint0_linear_393_11071)"/>
<circle cx="61" cy="20" r="16" fill="#F7F7F9"/>
<g clip-path="url(#clip0_393_11071)">
<path d="M63.1717 20.0007L58.2217 15.0507L59.6357 13.6367L65.9997 20.0007L59.6357 26.3647L58.2217 24.9507L63.1717 20.0007Z" fill="#827FA4"/>
</g>
<defs>
<linearGradient id="paint0_linear_393_11071" x1="93" y1="20.0002" x2="5.47026e-07" y2="20.0002" gradientUnits="userSpaceOnUse">
<stop offset="0.739583" stop-color="white"/>
<stop offset="1" stop-color="white" stop-opacity="0"/>
</linearGradient>
<clipPath id="clip0_393_11071">
<rect width="24" height="24" fill="white" transform="translate(49 8)"/>
</clipPath>
</defs>
</svg>
