Title,Url,Username,Password,OTPAuth,Favorite,Archived,Tags,Notes
facebook.com,https://www.facebook.com,sjoerdtilig@gmail.com,oAxUrYkGA@b64CdEc6&i,,false,false,,""""""
yahoo.com,login.yahoo.com,sjoerdtilig@yahoo.com,YsreAd$^o6Yppk4eaY$6,,false,false,,""""""
amazon.com,http://www.amazon.com,sjoerdtilig+1@gmail.com,^E^6xFW5kQ53iwhCOUXX,,false,false,,""""""
Google,https://accounts.google.com/ServiceLogin,sjoerdtilig@gmail.com,TheEasiestToUsePasswordManager,,false,false,,""""""
google.co.in,https://www.google.co.in/?pli=1,sjoerdtilig@gmail.com,,,false,false,,""""""
amazon.in,http://www.amazon.in,sjoerdtilig@gmail.com,mIQCnZ^12mH@WF@w99@3,,false,false,,""""""
instagram.com,www.instagram.com,sjoerdtilig,32ZeEuho4!NEnTx^6BUo,,false,false,,""""""
Yahoo with missing info,yahoo,missing,,,false,false,,""""""
amazon.com,http://www.amazon.com,sjoerdtilig@gmail.com,b7UgTJ9azH$Eo9iuJTIN,,false,false,,""""""
grammarly.com,https://www.grammarly.com/signup/app?client_id=windowsExtension&&code_challenge=lQ7-BGtROjtSZxDz6oBzzMDxW8VCDpoNvWyTk6IwGlU&showSuccessState=true,ss.boonstra@gmail.com,Wl!LZt0VK&pN09f$#mQ^,,false,false,,""""""
