name,type,dateCreated,dateUpdated,notes,trash,website,username,password,hint,cardType,cardholder,number,verification,expiryMonth,expiryYear,pin,zipCode
amazon.com,LoginItem,1656942452725,1656942452725,,false,http://www.amazon.com,sjoerdtilig+1@gmail.com,^E^6xFW5kQ53iwhCOUXX,,,,,,,,,
amazon.com,LoginItem,1656942452725,1656942571030,Note 1 no interpunction,false,http://www.amazon.com,sjoerdtilig@gmail.com,b7UgTJ9azH$Eo9iuJTIN,,,,,,,,,
amazon.in,LoginItem,1656942452726,1656942586826,"Note 2. It holds a comma, and a dot.",false,http://www.amazon.in,sjoerdtilig@gmail.com,mIQCnZ^12mH@WF@w99@3,,,,,,,,,
facebook.com,LoginItem,1656942452726,1656942599988,"Note 3. It holds a comma, and a dot.
And a line break created with enter.",false,https://www.facebook.com,sjoerdtilig@gmail.com,oAxUrYkGA@b64CdEc6&i,,,,,,,,,
google.co.in,LoginItem,1656942673068,1656942673068,Note 5 holds a smiley 😁,false,https://www.google.co.in/,sjoerdtilig@gmail.com,,,,,,,,,,
Google,LoginItem,1656942452728,1656942692584,"Note 4. It holds a comma, and a dot. 
And a line break? 

And an empty line",false,https://accounts.google.com/ServiceLogin,sjoerdtilig@gmail.com,TheEasiestToUsePasswordManager,,,,,,,,,
grammarly.com,LoginItem,1656942452728,1656942728347,"Note 6 will be a long note. Holding some regular sentences. Some text. It will make sure it becomes longer than 190 characters so our system should have issues now with it, but not in the future. Let's make sure that this is enough. I just keep typing. Be aware no line break. But a comma, added to make this harder for us.",false,https://www.grammarly.com/signup/app,ss.boonstra@gmail.com,Wl!LZt0VK&pN09f$#mQ^,,,,,,,,,
yahoo.com,LoginItem,1656942452729,1656942749690,"Note 9. This one holds markdown text from StackEdit!

# Welcome to StackEdit!

Hi! I'm your first Markdown file in **StackEdit**. If you want to learn about StackEdit, you can read me. If you want to play with Markdown, you can edit me. Once you have finished with me, you can create new files by opening the **file explorer** on the left corner of the navigation bar.


# Files

StackEdit stores your files in your browser, which means all your files are automatically saved locally and are accessible **offline!**

## Create files and folders

The file explorer is accessible using the button in left corner of the navigation bar. You can create a new file by clicking the **New file** button in the file explorer. You can also create folders by clicking the **New folder** button.

## Switch to another file

All your files and folders are presented as a tree in the file explorer. You can switch from one to another by clicking a file in the tree.

## Rename a file

You can rename the current file by clicking the file name in the navigation bar or by clicking the **Rename** button in the file explorer.

## Delete a file

You can delete the current file by clicking the **Remove** button in the file explorer. The file will be moved into the **Trash** folder and automatically deleted after 7 days of inactivity.

## Export a file

You can export the current file by clicking **Export to disk** in the menu. You can choose to export the file as plain Markdown, as HTML using a Handlebars template or as a PDF.


# Synchronization

Synchronization is one of the biggest features of StackEdit. It enables you to synchronize any file in your workspace with other files stored in your **Google Drive**, your **Dropbox** and your **GitHub** accounts. This allows you to keep writing on other devices, collaborate with people you share the file with, integrate easily into your workflow... The synchronization mechanism takes place every minute in the background, downloading, merging, and uploading file modifications.

There are two types of synchronization and they can complement each other:

- The workspace synchronization will sync all your files, folders and settings automatically. This will allow you to fetch your workspace on any other device.
 > To start syncing your workspace, just sign in with Google in the menu.

- The file synchronization will keep one file of the workspace synced with one or multiple files in **Google Drive**, **Dropbox** or **GitHub**.
 > Before starting to sync files, you must link an account in the **Synchronize** sub-menu.

## Open a file

You can open a file from **Google Drive**, **Dropbox** or **GitHub** by opening the **Synchronize** sub-menu and clicking **Open from**. Once opened in the workspace, any modification in the file will be automatically synced.

## Save a file

You can save any file of the workspace to **Google Drive**, **Dropbox** or **GitHub** by opening the **Synchronize** sub-menu and clicking **Save on**. Even if a file in the workspace is already synced, you can save it to another location. StackEdit can sync one file with multiple locations and accounts.

## Synchronize a file

Once your file is linked to a synchronized location, StackEdit will periodically synchronize it by downloading/uploading any modification. A merge will be performed if necessary and conflicts will be resolved.

If you just have modified your file and you want to force syncing, click the **Synchronize now** button in the navigation bar.

> **Note:** The **Synchronize now** button is disabled if you have no file to synchronize.

## Manage file synchronization

Since one file can be synced with multiple locations, you can list and manage synchronized locations by clicking **File synchronization** in the **Synchronize** sub-menu. This allows you to list and remove synchronized locations that are linked to your file.


# Publication

Publishing in StackEdit makes it simple for you to publish online your files. Once you're happy with a file, you can publish it to different hosting platforms like **Blogger**, **Dropbox**, **Gist**, **GitHub**, **Google Drive**, **WordPress** and **Zendesk**. With [Handlebars templates](http://handlebarsjs.com/), you have full control over what you export.

> Before starting to publish, you must link an account in the **Publish** sub-menu.

## Publish a File

You can publish your file by opening the **Publish** sub-menu and by clicking **Publish to**. For some locations, you can choose between the following formats:

- Markdown: publish the Markdown text on a website that can interpret it (**GitHub** for instance),
- HTML: publish the file converted to HTML via a Handlebars template (on a blog for example).

## Update a publication

After publishing, StackEdit keeps your file linked to that publication which makes it easy for you to re-publish it. Once you have modified your file and you want to update your publication, click on the **Publish now** button in the navigation bar.

> **Note:** The **Publish now** button is disabled if your file has not been published yet.

## Manage file publication

Since one file can be published to multiple locations, you can list and manage publish locations by clicking **File publication** in the **Publish** sub-menu. This allows you to list and remove publication locations that are linked to your file.


# Markdown extensions

StackEdit extends the standard Markdown syntax by adding extra **Markdown extensions**, providing you with some nice features.

> **ProTip:** You can disable any **Markdown extension** in the **File properties** dialog.


## SmartyPants

SmartyPants converts ASCII punctuation characters into """"smart"""" typographic punctuation HTML entities. For example:

|                |ASCII                          |HTML                         |
|----------------|-------------------------------|-----------------------------|
|Single backticks|`'Isn't this fun?'`            |'Isn't this fun?'            |
|Quotes          |`""""Isn't this fun?""""`            |""""Isn't this fun?""""            |
|Dashes          |`-- is en-dash, --- is em-dash`|-- is en-dash, --- is em-dash|


## KaTeX

You can render LaTeX mathematical expressions using [KaTeX](https://khan.github.io/KaTeX/):

The *Gamma function* satisfying $\Gamma(n) = (n-1)!\quad\forall n\in\mathbb N$ is via the Euler integral

$$
\Gamma(z) = \int_0^\infty t^{z-1}e^{-t}dt
.
$$

> You can find more information about **LaTeX** mathematical expressions [here](http://meta.math.stackexchange.com/questions/5020/mathjax-basic-tutorial-and-quick-reference).


## UML diagrams

You can render UML diagrams using [Mermaid](https://mermaidjs.github.io/). For example, this will produce a sequence diagram:

```mermaid
sequenceDiagram
Alice ->> Bob: Hello Bob, how are you?
Bob-->>John: How about you John?
Bob--x Alice: I am good thanks!
Bob-x John: I am good thanks!
Note right of John: Bob thinks a long<br/>long time, so long<br/>that the text does<br/>not fit on a row.

Bob-->Alice: Checking with John...
Alice->John: Yes... John, how are you?
```

And this will produce a flow chart:

```mermaid
graph LR
A[Square Rect] -- Link text --> B((Circle))
A --> C(Round Rect)
B --> D{Rhombus}
C --> D
```",false,http://login.yahoo.com,sjoerdtilig@yahoo.com,YsreAd$^o6Yppk4eaY$6,,,,,,,,,
Yahoo with missing info,LoginItem,1656944228697,1656944228697,"Note 8 will be a long note. Holding some regular sentences. Some text. It will make sure it becomes longer than 190 characters so our system should have issues now with it, but not in the future. Let's make sure that this is enough. I just keep typing. 
This one has line breaks.

This one has empty lines in between. 

And is also long enough. Just enter the same paragraph again. 

Note 8 will be a long note. Holding some regular sentences. Some text. It will make sure it becomes longer than 190 characters so our system should have issues now with it, but not in the future. Let's make sure that this is enough. I just keep typing.",false,yahoo,missing,,,,,,,,,,
instagram.com,LoginItem,1656942452729,1656944258706,"Note 7 will be a super long note. Holding some regular sentences. Some text. It will make sure it becomes longer than 190 characters so our system should have issues now with it, but not in the future. Let's make sure that this is enough. I just keep typing. Be aware no line break. But a comma, added to make this harder for us. Note 7 will be a super long note. Holding some regular sentences. Some text. It will make sure it becomes longer than 190 characters so our system should have issues now with it, but not in the future. Let's make sure that this is enough. I just keep typing. Be aware no line break. But a comma, added to make this harder for us. Note 7 will be a super long note. Holding some regular sentences. Some text. It will make sure it becomes longer than 190 characters so our system should have issues now with it, but not in the future. Let's make sure that this is enough. I just keep typing. Be aware no line break. But a comma, added to make this harder for us. Note 7 will be a super long note. Holding some regular sentences. Some text. It will make sure it becomes longer than 190 characters so our system should have issues now with it, but not in the future. Let's make sure that this is enough. I just keep typing. Be aware no line break. But a comma, added to make this harder for us. Note 7 will be a super long note. Holding some regular sentences. Some text. It will make sure it becomes longer than 190 characters so our system should have issues now with it, but not in the future. Let's make sure that this is enough. I just keep typing. Be aware no line break. But a comma, added to make this harder for us. Note 7 will be a super long note. Holding some regular sentences. Some text. It will make sure it becomes longer than 190 characters so our system should have issues now with it, but not in the future. Let's make sure that this is enough. I just keep typing. Be aware no line break. But a comma, added to make this harder for us.Note 7 will be a super long note. Holding some regular sentences. Some text. It will make sure it becomes longer than 190 characters so our system should have issues now with it, but not in the future. Let's make sure that this is enough. I just keep typing. Be aware no line break. But a comma, added to make this harder for us.",false,http://www.instagram.com,sjoerdtilig,32ZeEuho4!NEnTx^6BUo,,,,,,,,,
