<?xml version="1.0" encoding="UTF-8"?>
<svg width="18px" height="18px" viewBox="0 0 18 18" version="1.1" xmlns="http://www.w3.org/2000/svg" xmlns:xlink="http://www.w3.org/1999/xlink">
    <title>156E00B5-0EC1-4E2D-A2EC-A7E3ADECBFAC</title>
    <g id="UI---Desktop" stroke="none" stroke-width="1" fill="none" fill-rule="evenodd" fill-opacity="0.5">
        <g id="2.0-Accounts---no-accounts" transform="translate(-39.000000, -155.000000)" fill="#A1A1BA" fill-rule="nonzero">
            <g id="left" transform="translate(0.000000, 64.000000)">
                <g id="accounts" transform="translate(0.000000, 72.000000)">
                    <g id="logo/airbnb" transform="translate(39.267581, 19.000000)">
                        <g id="logo-airbnb" transform="translate(0.679631, 0.000000)">
                            <path d="M15.6576928,14.5764342 C15.5306483,15.5135049 14.8957886,16.3243967 14.0068398,16.6847531 C13.5713365,16.8647513 13.0997678,16.9189308 12.6280178,16.8647513 C12.1745724,16.8107518 11.7209458,16.6665733 11.249377,16.396576 C10.5962127,16.0358596 9.94304837,15.4775052 9.18114409,14.6486135 C10.3785517,13.1891881 11.1040281,11.8557614 11.3762403,10.6668733 C11.5032847,10.1081589 11.521408,9.60362392 11.4670381,9.13508862 C11.3945448,8.68473313 11.2312538,8.27019731 10.9771648,7.90984088 C10.4147983,7.09912897 9.47147964,6.63059367 8.41923982,6.63059367 C7.36699999,6.63059367 6.4236813,7.11712879 5.86131476,7.90984088 C5.60722585,8.27019731 5.444116,8.68473313 5.37144149,9.13508862 C5.29894822,9.60362392 5.31707154,10.1261587 5.46223931,10.6668733 C5.7342703,11.8557614 6.47805126,13.2071879 7.65733554,14.6664333 C6.91355459,15.495505 6.2422669,16.0540394 5.58910254,16.4143958 C5.11753381,16.6847531 4.66390717,16.8289317 4.21046177,16.8827512 C3.7205885,16.9369306 3.24883854,16.8647513 2.83163977,16.702753 C1.94269105,16.3423965 1.30783124,15.5313246 1.18078678,14.594434 C1.12641683,14.1440785 1.16266346,13.693723 1.34407787,13.1891881 C1.39844782,13.0088299 1.48924565,12.8290117 1.57986223,12.6126538 C1.70690669,12.3244768 1.85207446,12.0179398 1.997061,11.7115829 L2.01536555,11.6757632 C3.26696186,8.9909101 4.60953722,6.25223747 6.00648254,3.58574414 L6.06085249,3.47738522 C6.20602027,3.20738792 6.35100681,2.91921081 6.49635581,2.64885351 C6.64134236,2.36049639 6.80463343,2.0901391 7.00417114,1.85578144 C7.38512331,1.42324576 7.8931199,1.1890681 8.45548646,1.1890681 C9.01785296,1.1890681 9.52584955,1.42324576 9.90680172,1.85578144 C10.1063394,2.0901391 10.2696305,2.36049639 10.4147983,2.64885351 C10.5599661,2.91921081 10.7049526,3.20738792 10.8501204,3.47738522 L10.9046716,3.58574414 C12.2833123,6.27023729 13.6258877,9.00890992 14.8776652,11.693763 L14.8776652,11.7115829 C15.022833,11.99994 15.1496962,12.3244768 15.294864,12.6126538 C15.3856618,12.8290117 15.4762784,13.0088299 15.5306483,13.1891881 C15.6758162,13.6575434 15.7301861,14.1082589 15.6576928,14.5764342 L15.6576928,14.5764342 Z M8.41923982,13.7295427 C7.4396745,12.504475 6.80463343,11.3512265 6.58697239,10.3785162 C6.49635581,9.96398035 6.47805126,9.60362392 6.53260245,9.27926722 C6.56884908,8.9909101 6.67777023,8.73855263 6.82275675,8.52219475 C7.16746228,8.03619963 7.74795209,7.72930267 8.41923982,7.72930267 C9.09052747,7.72930267 9.68914068,8.01783978 10.0157228,8.52219475 C10.1607094,8.73855263 10.2696305,8.9909101 10.3058771,9.27926722 C10.3602471,9.60362392 10.3421238,9.98198018 10.2515072,10.3785162 C10.0338461,11.3334066 9.39880513,12.4864751 8.41923982,13.7295427 L8.41923982,13.7295427 Z M16.6010115,12.792652 C16.5103949,12.5764742 16.4195971,12.3422965 16.3289805,12.1441185 C16.1838127,11.8199418 16.0386449,11.5134049 15.9116005,11.2250478 L15.8934772,11.2072279 C14.6418809,8.50437497 13.2993055,5.76570233 11.8842369,3.06338936 L11.8298669,2.95503044 C11.6846992,2.68467315 11.5395314,2.39631603 11.3945448,2.10813892 C11.2129492,1.78360216 11.0315348,1.44160558 10.7413804,1.11706883 C10.1607094,0.396356036 9.32631183,0 8.43736314,0 C7.53029106,0 6.71401688,0.396356036 6.11522244,1.08124919 C5.84319145,1.40542595 5.64365372,1.74778252 5.46223931,2.07231927 C5.31707154,2.36049639 5.17190376,2.64885351 5.02673599,2.91921081 L4.97236604,3.02702972 C3.57560196,5.72970269 2.21490328,8.4685553 0.963125741,11.1712283 L0.945002423,11.2072279 C0.817957965,11.4954051 0.67279019,11.801582 0.527622419,12.1261187 C0.437005831,12.3244768 0.346208011,12.5406546 0.255591422,12.7748323 C0.0196258286,13.4413656 -0.0528674414,14.0720792 0.0377491462,14.7206128 C0.237468105,16.0720392 1.14454014,17.2072879 2.39631769,17.7116429 C2.86788641,17.9100009 3.35775968,18 3.86575627,18 C4.01092405,18 4.19233846,17.9820002 4.33750623,17.9638203 C4.93611941,17.8916411 5.5528559,17.693823 6.15146908,17.3512865 C6.89543127,16.9369306 7.60296557,16.3423965 8.40111649,15.4775052 C9.19926742,16.3423965 9.92492504,16.9369306 10.6505827,17.3512865 C11.249377,17.693823 11.8661136,17.8916411 12.4647267,17.9638203 C12.6098945,17.9820002 12.7913089,18 12.9364767,18 C13.4444733,18 13.9522886,17.9100009 14.4059153,17.7116429 C15.6758162,17.2072879 16.5647649,16.0540394 16.7643026,14.7206128 C16.9094704,14.0898991 16.8367959,13.4595454 16.6010115,12.792652 L16.6010115,12.792652 Z" id="Shape"></path>
                        </g>
                    </g>
                </g>
            </g>
        </g>
    </g>
</svg>